{"status":true,"msg":"done","items":[{"tmdb":{"type":"tv","id":"301886","season":1,"vote_average":10,"vote_count":1},"imdb":{"id":null},"modified":{"time":"2026-02-14T07:55:58.000Z"},"_id":"0e11c5d19204c3c8e967811d54adbede","name":"T\u00ean Tr\u1ed9m D\u1ea5u Y\u00eau","slug":"ten-trom-dau-yeu","origin_name":"To My Beloved Thief","type":"series","poster_url":"https:\/\/phimimg.com\/upload\/vod\/20260105-1\/0adea2e823ede3d6a2bca22d1f0ac286.jpg","thumb_url":"https:\/\/phimimg.com\/upload\/vod\/20260105-1\/b06c35ac98344554a8a5031bf75c53d5.jpg","sub_docquyen":false,"time":"62 ph\u00fat\/t\u1eadp","episode_current":"T\u1eadp 12","quality":"FHD","lang":"Vietsub + Thuy\u1ebft Minh","year":2026,"category":[{"id":"0bcf4077916678de9b48c89221fcf8ae","name":"Khoa H\u1ecdc","slug":"khoa-hoc"},{"id":"68564911f00849030f9c9c144ea1b931","name":"Vi\u1ec5n T\u01b0\u1edfng","slug":"vien-tuong"},{"id":"ba6fd52e5a3aca80eaaf1a3b50a182db","name":"H\u00e0i H\u01b0\u1edbc","slug":"hai-huoc"},{"id":"a7b065b92ad356387ef2e075dee66529","name":"T\u00e2m L\u00fd","slug":"tam-ly"}],"country":[{"id":"05de95be5fc404da9680bbb3dd8262e6","name":"H\u00e0n Qu\u1ed1c","slug":"han-quoc"}]},{"tmdb":{"type":"tv","id":"313103","season":1,"vote_average":0,"vote_count":0},"imdb":{"id":null},"modified":{"time":"2026-02-14T07:55:09.000Z"},"_id":"35f4421c476ab29bd7492717ccb0642c","name":"Kh\u00f4ng Gi\u1edbi H\u1ea1n","slug":"khong-gioi-han-2026","origin_name":"No Limit","type":"series","poster_url":"https:\/\/phimimg.com\/upload\/vod\/20260203-1\/85198540649e37fd8ab33b0adbdb05be.jpg","thumb_url":"https:\/\/phimimg.com\/upload\/vod\/20260203-1\/250664c33b94bbefcb56a6b40289ccf4.jpg","sub_docquyen":false,"time":"45 ph\u00fat\/t\u1eadp","episode_current":"T\u1eadp 10","quality":"FHD","lang":"Vietsub","year":2026,"category":[{"id":"37a7b38b6184a5ebd3c43015aa20709d","name":"Ch\u00ednh K\u1ecbch","slug":"chinh-kich"},{"id":"a2492d6cbc4d58f115406ca14e5ec7b6","name":"Gia \u0110\u00ecnh","slug":"gia-dinh"},{"id":"bb2b4b030608ca5984c8dd0770f5b40b","name":"T\u00ecnh C\u1ea3m","slug":"tinh-cam"},{"id":"a7b065b92ad356387ef2e075dee66529","name":"T\u00e2m L\u00fd","slug":"tam-ly"}],"country":[{"id":"f6ce1ae8b39af9d38d653b8a0890adb8","name":"Vi\u1ec7t Nam","slug":"viet-nam"}]},{"tmdb":{"type":"tv","id":"312701","season":1,"vote_average":0,"vote_count":0},"imdb":{"id":null},"modified":{"time":"2026-02-14T07:54:27.000Z"},"_id":"4a850ecfb32efa4f6e894ed5b631d445","name":"\u0110\u1ed3ng H\u1ed3 \u0110\u1ebfm Ng\u01b0\u1ee3c","slug":"dong-ho-dem-nguoc","origin_name":"Countdown","type":"series","poster_url":"https:\/\/phimimg.com\/upload\/vod\/20260203-1\/fb5309b3a43ae8a7cda22c7830482c12.jpg","thumb_url":"https:\/\/phimimg.com\/upload\/vod\/20260203-1\/1db8c48f1c8e3dbbf3add23411fba047.jpg","sub_docquyen":false,"time":"45 ph\u00fat\/t\u1eadp","episode_current":"T\u1eadp 6","quality":"FHD","lang":"Vietsub","year":2026,"category":[{"id":"a2492d6cbc4d58f115406ca14e5ec7b6","name":"Gia \u0110\u00ecnh","slug":"gia-dinh"},{"id":"37a7b38b6184a5ebd3c43015aa20709d","name":"Ch\u00ednh K\u1ecbch","slug":"chinh-kich"},{"id":"bb2b4b030608ca5984c8dd0770f5b40b","name":"T\u00ecnh C\u1ea3m","slug":"tinh-cam"},{"id":"a7b065b92ad356387ef2e075dee66529","name":"T\u00e2m L\u00fd","slug":"tam-ly"}],"country":[{"id":"f6ce1ae8b39af9d38d653b8a0890adb8","name":"Vi\u1ec7t Nam","slug":"viet-nam"}]},{"tmdb":{"type":null,"id":null,"season":null,"vote_average":0,"vote_count":0},"imdb":{"id":null},"modified":{"time":"2026-02-14T07:53:54.000Z"},"_id":"21a38ed2ee0c2c081c31286d29db2acc","name":"\u0110\u1ea5u La \u0110\u1ea1i L\u1ee5c 2 (Tuy\u1ec7t Th\u1ebf \u0110\u01b0\u1eddng M\u00f4n)","slug":"dau-la-dai-luc-2-tuyet-the-duong-mon","origin_name":"Soul Land 2 (The Peerless Tang Clan)","type":"hoathinh","poster_url":"https:\/\/phimimg.com\/upload\/vod\/20240103-1\/af2ae10bcb72617994f00dce440205dc.jpg","thumb_url":"https:\/\/phimimg.com\/upload\/vod\/20240103-1\/bbe888d771d0e6ff0f9935f8f6194c79.jpg","sub_docquyen":false,"time":"22 ph\u00fat\/t\u1eadp","episode_current":"T\u1eadp 140","quality":"FDH","lang":"Vietsub","year":2023,"category":[{"id":"9822be111d2ccc29c7172c78b8af8ff5","name":"H\u00e0nh \u0110\u1ed9ng","slug":"hanh-dong"},{"id":"66c78b23908113d478d8d85390a244b4","name":"Phi\u00eau L\u01b0u","slug":"phieu-luu"},{"id":"578f80eb493b08d175c7a0c29687cbdf","name":"V\u00f5 Thu\u1eadt","slug":"vo-thuat"}],"country":[{"id":"92aa3c93de523a414a520399bb6a4304","name":"Trung Qu\u00f4\u0301c","slug":"trung-quoc"}]},{"tmdb":{"type":"tv","id":"258680","season":1,"vote_average":6.8,"vote_count":10},"imdb":{"id":null},"modified":{"time":"2026-02-14T07:52:53.000Z"},"_id":"e74843b99da8b29775c6aa9080436844","name":"D\u00f9 Sao Anh V\u1eabn Y\u00eau Em (Ph\u1ea7n 2)","slug":"du-sao-anh-van-yeu-em-phan-2","origin_name":"Anyway I'm Falling In Love With You (Season 2)","type":"hoathinh","poster_url":"https:\/\/phimimg.com\/upload\/vod\/20260109-1\/ddc897b5e32b7ec3cfcf435f6fe3b17c.jpg","thumb_url":"https:\/\/phimimg.com\/upload\/vod\/20260109-1\/aa9262d4873b22e8e29a6d5f5ba3f5e6.jpg","sub_docquyen":false,"time":"24 ph\u00fat\/t\u1eadp","episode_current":"T\u1eadp 6","quality":"FHD","lang":"Vietsub","year":2026,"category":[{"id":"37a7b38b6184a5ebd3c43015aa20709d","name":"Ch\u00ednh K\u1ecbch","slug":"chinh-kich"},{"id":"bb2b4b030608ca5984c8dd0770f5b40b","name":"T\u00ecnh C\u1ea3m","slug":"tinh-cam"},{"id":"a7b065b92ad356387ef2e075dee66529","name":"T\u00e2m L\u00fd","slug":"tam-ly"},{"id":"ba6fd52e5a3aca80eaaf1a3b50a182db","name":"H\u00e0i H\u01b0\u1edbc","slug":"hai-huoc"}],"country":[{"id":"d4097fbffa8f7149a61281437171eb83","name":"Nh\u1eadt B\u1ea3n","slug":"nhat-ban"}]},{"tmdb":{"type":"movie","id":"1426964","season":null,"vote_average":1,"vote_count":1},"imdb":{"id":null},"modified":{"time":"2026-02-13T15:43:47.000Z"},"_id":"0ace2e260c8163925254bc878b9eb8ca","name":"Th\u00e0nh Ph\u1ed1 S\u1ee3 H\u00e3i","slug":"thanh-pho-so-hai","origin_name":"State Of Fear","type":"single","poster_url":"https:\/\/phimimg.com\/upload\/vod\/20260212-1\/86d05280cdf91c33283496597a22be54.jpg","thumb_url":"https:\/\/phimimg.com\/upload\/vod\/20260212-1\/3d740cd6e3e07fc2ff55e8603460496e.jpg","sub_docquyen":false,"time":"103 ph\u00fat","episode_current":"Full","quality":"FHD","lang":"Vietsub + Thuy\u1ebft Minh","year":2026,"category":[{"id":"9822be111d2ccc29c7172c78b8af8ff5","name":"H\u00e0nh \u0110\u1ed9ng","slug":"hanh-dong"},{"id":"a7b065b92ad356387ef2e075dee66529","name":"T\u00e2m L\u00fd","slug":"tam-ly"},{"id":"7a035ac0b37f5854f0f6979260899c90","name":"H\u00ecnh S\u1ef1","slug":"hinh-su"},{"id":"37a7b38b6184a5ebd3c43015aa20709d","name":"Ch\u00ednh K\u1ecbch","slug":"chinh-kich"}],"country":[{"id":"42537f0fb56e31e20ab9c2305752087d","name":"Brazil","slug":"brazil"}]},{"tmdb":{"type":"movie","id":"1317288","season":null,"vote_average":7.7,"vote_count":652},"imdb":{"id":null},"modified":{"time":"2026-02-13T15:43:22.000Z"},"_id":"1b4c423abf96a91af57fcb3f5dc9491e","name":"Marty V\u00f4 Song","slug":"marty-vo-song","origin_name":"Marty Supreme","type":"single","poster_url":"https:\/\/phimimg.com\/upload\/vod\/20260213-1\/4e57a2869799dedbfd10f7ad879c6683.jpg","thumb_url":"https:\/\/phimimg.com\/upload\/vod\/20260213-1\/98d7801cf7094547313e43786eff7ecc.jpg","sub_docquyen":false,"time":"150 ph\u00fat","episode_current":"Full","quality":"FHD","lang":"Vietsub","year":2025,"category":[{"id":"37a7b38b6184a5ebd3c43015aa20709d","name":"Ch\u00ednh K\u1ecbch","slug":"chinh-kich"}],"country":[{"id":"74d9fa92f4dea9ecea8fc2233dc7921a","name":"\u00c2u M\u1ef9","slug":"au-my"}]},{"tmdb":{"type":"movie","id":"1238188","season":null,"vote_average":6.649,"vote_count":47},"imdb":{"id":null},"modified":{"time":"2026-02-13T15:43:11.000Z"},"_id":"837e868ffbb3a67451e480e1864e071d","name":"Ng\u01b0\u1eddi T\u00f9 B\u1ecb Giam C\u1ea7m","slug":"nguoi-tu-bi-giam-cam","origin_name":"The Captive","type":"single","poster_url":"https:\/\/phimimg.com\/upload\/vod\/20260213-1\/486ad74183c6048c5738ca21b189ed83.jpg","thumb_url":"https:\/\/phimimg.com\/upload\/vod\/20260213-1\/05eda0c9946de07f660a4b12af3006a0.jpg","sub_docquyen":false,"time":"134 ph\u00fat","episode_current":"Full","quality":"FHD","lang":"Vietsub","year":2025,"category":[{"id":"37a7b38b6184a5ebd3c43015aa20709d","name":"Ch\u00ednh K\u1ecbch","slug":"chinh-kich"},{"id":"f8ec3e9b77c509fdf64f0c387119b916","name":"L\u1ecbch S\u1eed","slug":"lich-su"}],"country":[{"id":"a30878a7fdb6a94348fce16d362edb11","name":"\u00dd","slug":"y"},{"id":"8a40abac202ab3659bb98f71f05458d1","name":"T\u00e2y Ban Nha","slug":"tay-ban-nha"}]},{"tmdb":{"type":"movie","id":"1315303","season":null,"vote_average":6.592,"vote_count":212},"imdb":{"id":null},"modified":{"time":"2026-02-13T15:42:58.000Z"},"_id":"b0755c8792bb4f2feb8e226f3d46876d","name":"Linh Tr\u01b0\u1edfng","slug":"linh-truong","origin_name":"Primate","type":"single","poster_url":"https:\/\/phimimg.com\/upload\/vod\/20260213-1\/ae8ce6e1bf80b7438f6d23680e01c2f1.jpg","thumb_url":"https:\/\/phimimg.com\/upload\/vod\/20260213-1\/492338f69dcb3344f8a3bbdb0dcdc354.jpg","sub_docquyen":false,"time":"89 ph\u00fat","episode_current":"Full","quality":"FHD","lang":"Vietsub + Thuy\u1ebft Minh","year":2026,"category":[{"id":"4db8d7d4b9873981e3eeb76d02997d58","name":"Kinh D\u1ecb","slug":"kinh-di"},{"id":"a7b065b92ad356387ef2e075dee66529","name":"T\u00e2m L\u00fd","slug":"tam-ly"}],"country":[{"id":"74d9fa92f4dea9ecea8fc2233dc7921a","name":"\u00c2u M\u1ef9","slug":"au-my"}]},{"tmdb":{"type":"movie","id":"1089654","season":null,"vote_average":7.581,"vote_count":62},"imdb":{"id":null},"modified":{"time":"2026-02-13T15:41:56.000Z"},"_id":"dc74d495021d5eb62f2a0dc42a47442b","name":"Tr\u01b0\u1eddng An Ba V\u1ea1n D\u1eb7m","slug":"truong-an-ba-van-dam","origin_name":"Chang'an","type":"hoathinh","poster_url":"https:\/\/phimimg.com\/upload\/vod\/20260213-1\/2f0bd194c4789bc8d9c561063816ad74.jpg","thumb_url":"https:\/\/phimimg.com\/upload\/vod\/20260213-1\/91972505b9272d258ade034553248dcf.jpg","sub_docquyen":false,"time":"168 ph\u00fat","episode_current":"Full","quality":"FHD","lang":"Vietsub + Thuy\u1ebft Minh","year":2023,"category":[{"id":"f8ec3e9b77c509fdf64f0c387119b916","name":"L\u1ecbch S\u1eed","slug":"lich-su"},{"id":"66c78b23908113d478d8d85390a244b4","name":"Phi\u00eau L\u01b0u","slug":"phieu-luu"},{"id":"68564911f00849030f9c9c144ea1b931","name":"Vi\u1ec5n T\u01b0\u1edfng","slug":"vien-tuong"}],"country":[{"id":"3e075636c731fe0f889c69e0bf82c083","name":"Trung Qu\u1ed1c","slug":"trung-quoc"}]},{"tmdb":{"type":"tv","id":"280948","season":1,"vote_average":8,"vote_count":3},"imdb":{"id":null},"modified":{"time":"2026-02-13T15:40:56.000Z"},"_id":"4825f2b20fb569c346c060a2f8c31c18","name":"C\u01a1n Say M\u00f9a Xu\u00e2n","slug":"con-say-mua-xuan","origin_name":"Spring Fever","type":"series","poster_url":"https:\/\/phimimg.com\/upload\/vod\/20260106-1\/deeaf96194e9eb72cc990cb4747536e6.jpg","thumb_url":"https:\/\/phimimg.com\/upload\/vod\/20260106-1\/d5e890dcb880d197c872605fd6aad150.jpg","sub_docquyen":false,"time":"61 ph\u00fat\/t\u1eadp","episode_current":"Ho\u00e0n T\u1ea5t (12\/12)","quality":"FHD","lang":"Vietsub + Thuy\u1ebft Minh","year":2026,"category":[{"id":"ba6fd52e5a3aca80eaaf1a3b50a182db","name":"H\u00e0i H\u01b0\u1edbc","slug":"hai-huoc"},{"id":"37a7b38b6184a5ebd3c43015aa20709d","name":"Ch\u00ednh K\u1ecbch","slug":"chinh-kich"},{"id":"bb2b4b030608ca5984c8dd0770f5b40b","name":"T\u00ecnh C\u1ea3m","slug":"tinh-cam"},{"id":"a7b065b92ad356387ef2e075dee66529","name":"T\u00e2m L\u00fd","slug":"tam-ly"}],"country":[{"id":"05de95be5fc404da9680bbb3dd8262e6","name":"H\u00e0n Qu\u1ed1c","slug":"han-quoc"}]},{"tmdb":{"type":"movie","id":"1562579","season":null,"vote_average":6,"vote_count":1},"imdb":{"id":null},"modified":{"time":"2026-02-13T11:33:07.000Z"},"_id":"857cd81e6a7d216eeaf1946a803a7d5e","name":"Vu Ch\u00fa","slug":"vu-chu","origin_name":"Cursed Village","type":"single","poster_url":"https:\/\/phimimg.com\/upload\/vod\/20260213-1\/dc94e66cfbb623e3f46b92cc809206e0.jpg","thumb_url":"https:\/\/phimimg.com\/upload\/vod\/20260213-1\/2bd9e1a86c0250d546e74ea84978eb28.jpg","sub_docquyen":false,"time":"88 ph\u00fat","episode_current":"Full","quality":"FHD","lang":"Vietsub","year":2025,"category":[{"id":"a7b065b92ad356387ef2e075dee66529","name":"T\u00e2m L\u00fd","slug":"tam-ly"},{"id":"4db8d7d4b9873981e3eeb76d02997d58","name":"Kinh D\u1ecb","slug":"kinh-di"},{"id":"37a7b38b6184a5ebd3c43015aa20709d","name":"Ch\u00ednh K\u1ecbch","slug":"chinh-kich"}],"country":[{"id":"92aa3c93de523a414a520399bb6a4304","name":"Trung Qu\u00f4\u0301c","slug":"trung-quoc"}]},{"tmdb":{"type":"tv","id":"249522","season":2,"vote_average":7.513,"vote_count":193},"imdb":{"id":null},"modified":{"time":"2026-02-13T11:26:45.000Z"},"_id":"1452a9dac23cad0697d2d9b76470e234","name":"Tr\u00f2 Ch\u01a1i Qu\u00e1i V\u1eadt (Ph\u1ea7n 2)","slug":"tro-choi-quai-vat-phan-2","origin_name":"Beast Games (Season 2)","type":"tvshows","poster_url":"https:\/\/phimimg.com\/upload\/vod\/20260207-1\/73612d41d9c79f09b07a806ac1b8c0eb.jpg","thumb_url":"https:\/\/phimimg.com\/upload\/vod\/20260207-1\/18dbb99d1bf2125dcbbf249bc4ac1430.jpg","sub_docquyen":false,"time":"50 ph\u00fat\/t\u1eadp","episode_current":"T\u1eadp 8","quality":"FHD","lang":"Vietsub + L\u1ed3ng Ti\u1ebfng","year":2026,"category":[{"id":"37a7b38b6184a5ebd3c43015aa20709d","name":"Ch\u00ednh K\u1ecbch","slug":"chinh-kich"},{"id":"a2492d6cbc4d58f115406ca14e5ec7b6","name":"Gia \u0110\u00ecnh","slug":"gia-dinh"},{"id":"ba6fd52e5a3aca80eaaf1a3b50a182db","name":"H\u00e0i H\u01b0\u1edbc","slug":"hai-huoc"},{"id":"a7b065b92ad356387ef2e075dee66529","name":"T\u00e2m L\u00fd","slug":"tam-ly"}],"country":[{"id":"74d9fa92f4dea9ecea8fc2233dc7921a","name":"\u00c2u M\u1ef9","slug":"au-my"},{"id":"445d337b5cd5de476f99333df6b0c2a7","name":"Canada","slug":"canada"}]},{"tmdb":{"type":null,"id":null,"season":null,"vote_average":0,"vote_count":0},"imdb":{"id":null},"modified":{"time":"2026-02-13T11:26:08.000Z"},"_id":"b414506974c8c8d9d1e4d0cf5ced4c76","name":"Th\u1ebf Gi\u1edbi Ho\u00e0n M\u1ef9","slug":"the-gioi-hoan-my","origin_name":"Perfect World","type":"hoathinh","poster_url":"https:\/\/phimimg.com\/upload\/vod\/20240822-1\/97aa8ce6feea9737ac591a26a289b725.jpg","thumb_url":"https:\/\/phimimg.com\/upload\/vod\/20240822-1\/98b87edeb63d262313f864bc57df93d5.jpg","sub_docquyen":false,"time":"20 ph\u00fat\/t\u1eadp","episode_current":"T\u1eadp 255","quality":"FHD","lang":"Vietsub","year":2021,"category":[{"id":"66c78b23908113d478d8d85390a244b4","name":"Phi\u00eau L\u01b0u","slug":"phieu-luu"},{"id":"0bcf4077916678de9b48c89221fcf8ae","name":"Khoa H\u1ecdc","slug":"khoa-hoc"},{"id":"68564911f00849030f9c9c144ea1b931","name":"Vi\u1ec5n T\u01b0\u1edfng","slug":"vien-tuong"}],"country":[{"id":"3e075636c731fe0f889c69e0bf82c083","name":"Trung Qu\u1ed1c","slug":"trung-quoc"}]},{"tmdb":{"type":"tv","id":"79744","season":8,"vote_average":8.533,"vote_count":2893},"imdb":{"id":null},"modified":{"time":"2026-02-13T11:25:35.000Z"},"_id":"80bd1978a3dff0dbaceb95fb9191e7ee","name":"L\u00ednh M\u1edbi (Ph\u1ea7n 8)","slug":"linh-moi-phan-8","origin_name":"The Rookie (Season 8)","type":"series","poster_url":"https:\/\/phimimg.com\/upload\/vod\/20260116-1\/57b5ff4837c77ab0d389eb750ae35ead.jpg","thumb_url":"https:\/\/phimimg.com\/upload\/vod\/20260116-1\/12bc365f98d70c5e3ab3b783500a78bf.jpg","sub_docquyen":false,"time":"43 ph\u00fat\/t\u1eadp","episode_current":"T\u1eadp 5","quality":"FHD","lang":"Vietsub","year":2026,"category":[{"id":"7a035ac0b37f5854f0f6979260899c90","name":"H\u00ecnh S\u1ef1","slug":"hinh-su"},{"id":"37a7b38b6184a5ebd3c43015aa20709d","name":"Ch\u00ednh K\u1ecbch","slug":"chinh-kich"},{"id":"ba6fd52e5a3aca80eaaf1a3b50a182db","name":"H\u00e0i H\u01b0\u1edbc","slug":"hai-huoc"},{"id":"a7b065b92ad356387ef2e075dee66529","name":"T\u00e2m L\u00fd","slug":"tam-ly"}],"country":[{"id":"445d337b5cd5de476f99333df6b0c2a7","name":"Canada","slug":"canada"},{"id":"74d9fa92f4dea9ecea8fc2233dc7921a","name":"\u00c2u M\u1ef9","slug":"au-my"}]},{"tmdb":{"type":"tv","id":"285357","season":1,"vote_average":0,"vote_count":0},"imdb":{"id":null},"modified":{"time":"2026-02-13T11:24:19.000Z"},"_id":"7a456d7f29b4e7e92bb9a14c24dce430","name":"T\u1eeb B\u1ecf T\u1ea5t C\u1ea3, T\u00f4i S\u1ebd Chi\u1ebfn \u0110\u1ea5u Cho M\u1ed9t Cu\u1ed9c S\u1ed1ng B\u00ecnh Th\u01b0\u1eddng V\u1edbi T\u00ecnh Y\u00eau C\u1ee7a \u0110\u1eddi M\u00ecnh V\u00e0 Chi\u1ebfc Thanh Ki\u1ebfm B\u1ecb Nguy\u1ec1n R\u1ee7a!","slug":"tu-bo-tat-ca-toi-se-chien-dau-cho-mot-cuoc-song-binh-thuong-voi-tinh-yeu-cua-doi-minh-va-chiec-thanh-kiem-bi-nguyen-rua","origin_name":"Roll Over And Die: I Will Fight For An Ordinary Life With My Love And Cursed Sword!","type":"hoathinh","poster_url":"https:\/\/phimimg.com\/upload\/vod\/20260109-1\/799749af0679b757b39c936678c7e9cc.jpg","thumb_url":"https:\/\/phimimg.com\/upload\/vod\/20260109-1\/ab0e7f9ac648d4719aca92c601e26546.jpg","sub_docquyen":false,"time":"22 ph\u00fat\/t\u1eadp","episode_current":"T\u1eadp 6","quality":"FHD","lang":"Vietsub","year":2026,"category":[{"id":"37a7b38b6184a5ebd3c43015aa20709d","name":"Ch\u00ednh K\u1ecbch","slug":"chinh-kich"},{"id":"9822be111d2ccc29c7172c78b8af8ff5","name":"H\u00e0nh \u0110\u1ed9ng","slug":"hanh-dong"},{"id":"66c78b23908113d478d8d85390a244b4","name":"Phi\u00eau L\u01b0u","slug":"phieu-luu"},{"id":"0bcf4077916678de9b48c89221fcf8ae","name":"Khoa H\u1ecdc","slug":"khoa-hoc"},{"id":"68564911f00849030f9c9c144ea1b931","name":"Vi\u1ec5n T\u01b0\u1edfng","slug":"vien-tuong"},{"id":"a7b065b92ad356387ef2e075dee66529","name":"T\u00e2m L\u00fd","slug":"tam-ly"}],"country":[{"id":"d4097fbffa8f7149a61281437171eb83","name":"Nh\u1eadt B\u1ea3n","slug":"nhat-ban"}]},{"tmdb":{"type":"tv","id":"249907","season":1,"vote_average":8.7,"vote_count":3},"imdb":{"id":null},"modified":{"time":"2026-02-13T11:23:47.000Z"},"_id":"b4049a148eacf5ac3b5eac7c67e85758","name":"\u00c1n Ph\u1ea1t D\u0169ng Gi\u1ea3 (B\u1ea3n \u00c1n Anh H\u00f9ng)","slug":"an-phat-dung-gia-ban-an-anh-hung","origin_name":"Sentenced To Be A Hero","type":"hoathinh","poster_url":"https:\/\/phimimg.com\/upload\/vod\/20260104-1\/5ee53907fd022f7bd8088b1551dba33d.jpg","thumb_url":"https:\/\/phimimg.com\/upload\/vod\/20260104-1\/c266527e2cd28c9d1a19340115aa4eca.jpg","sub_docquyen":false,"time":"24 ph\u00fat\/t\u1eadp","episode_current":"T\u1eadp 6","quality":"FHD","lang":"Vietsub","year":2026,"category":[{"id":"9822be111d2ccc29c7172c78b8af8ff5","name":"H\u00e0nh \u0110\u1ed9ng","slug":"hanh-dong"},{"id":"66c78b23908113d478d8d85390a244b4","name":"Phi\u00eau L\u01b0u","slug":"phieu-luu"},{"id":"0bcf4077916678de9b48c89221fcf8ae","name":"Khoa H\u1ecdc","slug":"khoa-hoc"},{"id":"68564911f00849030f9c9c144ea1b931","name":"Vi\u1ec5n T\u01b0\u1edfng","slug":"vien-tuong"},{"id":"ba6fd52e5a3aca80eaaf1a3b50a182db","name":"H\u00e0i H\u01b0\u1edbc","slug":"hai-huoc"},{"id":"a7b065b92ad356387ef2e075dee66529","name":"T\u00e2m L\u00fd","slug":"tam-ly"}],"country":[{"id":"d4097fbffa8f7149a61281437171eb83","name":"Nh\u1eadt B\u1ea3n","slug":"nhat-ban"},{"id":"05de95be5fc404da9680bbb3dd8262e6","name":"H\u00e0n Qu\u1ed1c","slug":"han-quoc"}]},{"tmdb":{"type":"tv","id":"293629","season":1,"vote_average":9.3,"vote_count":3},"imdb":{"id":null},"modified":{"time":"2026-02-13T11:23:26.000Z"},"_id":"619543fb0bbc7a6ee1e64de621542c31","name":"Kh\u1ea3i Gi\u00e1p Ch\u00e2n Truy\u1ec1n (Yoroi Shin Den Samurai Troopers)","slug":"khai-giap-chan-truyen-yoroi-shin-den-samurai-troopers","origin_name":"Yoroi-Shinden Samurai Troopers","type":"hoathinh","poster_url":"https:\/\/phimimg.com\/upload\/vod\/20260116-1\/e3b57ec33c4555307df7c16a441ba08c.jpg","thumb_url":"https:\/\/phimimg.com\/upload\/vod\/20260116-1\/ce2cc0cbfbbf8532c8728a38aafdba39.jpg","sub_docquyen":false,"time":"24 ph\u00fat\/t\u1eadp","episode_current":"T\u1eadp 6","quality":"FHD","lang":"Vietsub","year":2026,"category":[{"id":"9822be111d2ccc29c7172c78b8af8ff5","name":"H\u00e0nh \u0110\u1ed9ng","slug":"hanh-dong"},{"id":"66c78b23908113d478d8d85390a244b4","name":"Phi\u00eau L\u01b0u","slug":"phieu-luu"},{"id":"0bcf4077916678de9b48c89221fcf8ae","name":"Khoa H\u1ecdc","slug":"khoa-hoc"},{"id":"68564911f00849030f9c9c144ea1b931","name":"Vi\u1ec5n T\u01b0\u1edfng","slug":"vien-tuong"},{"id":"a7b065b92ad356387ef2e075dee66529","name":"T\u00e2m L\u00fd","slug":"tam-ly"}],"country":[{"id":"d4097fbffa8f7149a61281437171eb83","name":"Nh\u1eadt B\u1ea3n","slug":"nhat-ban"}]},{"tmdb":{"type":"tv","id":"296009","season":1,"vote_average":8.5,"vote_count":2},"imdb":{"id":null},"modified":{"time":"2026-02-13T11:22:22.000Z"},"_id":"e4825224ef50eac17bcdf3576f66784e","name":"Baby \u0110\u1ebfn R\u1ed3i!","slug":"baby-den-roi","origin_name":"Positively Yours","type":"series","poster_url":"https:\/\/phimimg.com\/upload\/vod\/20260119-1\/d86e4511a783ac1a47f1514cc5e1b7c6.jpg","thumb_url":"https:\/\/phimimg.com\/upload\/vod\/20260119-1\/97353760bbeaf11746aec8cf43222132.jpg","sub_docquyen":false,"time":"64 ph\u00fat\/t\u1eadp","episode_current":"T\u1eadp 8","quality":"FHD","lang":"Vietsub + Thuy\u1ebft Minh","year":2026,"category":[{"id":"ba6fd52e5a3aca80eaaf1a3b50a182db","name":"H\u00e0i H\u01b0\u1edbc","slug":"hai-huoc"},{"id":"a2492d6cbc4d58f115406ca14e5ec7b6","name":"Gia \u0110\u00ecnh","slug":"gia-dinh"},{"id":"a7b065b92ad356387ef2e075dee66529","name":"T\u00e2m L\u00fd","slug":"tam-ly"},{"id":"37a7b38b6184a5ebd3c43015aa20709d","name":"Ch\u00ednh K\u1ecbch","slug":"chinh-kich"}],"country":[{"id":"05de95be5fc404da9680bbb3dd8262e6","name":"H\u00e0n Qu\u1ed1c","slug":"han-quoc"}]},{"tmdb":{"type":"tv","id":"274141","season":1,"vote_average":9,"vote_count":4},"imdb":{"id":null},"modified":{"time":"2026-02-13T11:21:52.000Z"},"_id":"9c31737d2e075dc48cffaee6253b790c","name":"K\u1ef3 Ngh\u1ec9 D\u01b0\u1ee1ng C\u1ee7a Ch\u00e0ng Qu\u00fd T\u1ed9c \u00d4n H\u00f2a (Odayaka Kizoku no Kyuuka no Susume)","slug":"ky-nghi-duong-cua-chang-quy-toc-on-hoa-odayaka-kizoku-no-kyuuka-no-susume","origin_name":"A Gentle Noble's Vacation Recommendation","type":"hoathinh","poster_url":"https:\/\/phimimg.com\/upload\/vod\/20260116-1\/7a62aea1dfc99613d6e4fadfae9fdd89.jpg","thumb_url":"https:\/\/phimimg.com\/upload\/vod\/20260116-1\/b5aed4ddbb54e3c808d9dddd70d210ee.jpg","sub_docquyen":false,"time":"22 ph\u00fat\/t\u1eadp","episode_current":"T\u1eadp 6","quality":"FHD","lang":"Vietsub","year":2026,"category":[{"id":"9822be111d2ccc29c7172c78b8af8ff5","name":"H\u00e0nh \u0110\u1ed9ng","slug":"hanh-dong"},{"id":"66c78b23908113d478d8d85390a244b4","name":"Phi\u00eau L\u01b0u","slug":"phieu-luu"},{"id":"0bcf4077916678de9b48c89221fcf8ae","name":"Khoa H\u1ecdc","slug":"khoa-hoc"},{"id":"68564911f00849030f9c9c144ea1b931","name":"Vi\u1ec5n T\u01b0\u1edfng","slug":"vien-tuong"},{"id":"a7b065b92ad356387ef2e075dee66529","name":"T\u00e2m L\u00fd","slug":"tam-ly"}],"country":[{"id":"d4097fbffa8f7149a61281437171eb83","name":"Nh\u1eadt B\u1ea3n","slug":"nhat-ban"}]},{"tmdb":{"type":"tv","id":"139060","season":2,"vote_average":7.6,"vote_count":71},"imdb":{"id":null},"modified":{"time":"2026-02-13T11:21:30.000Z"},"_id":"382c43c484ddee6d1c699d2fd5980d32","name":"N\u00f4 L\u1ec7 C\u1ee7a Ma \u0110\u00f4 Tinh Binh (Ph\u1ea7n 2)","slug":"no-le-cua-ma-do-tinh-binh-phan-2","origin_name":"Chained Soldier (Season 2)","type":"hoathinh","poster_url":"https:\/\/phimimg.com\/upload\/vod\/20260110-1\/6afc2a9035c96502a69aafdc937868f9.jpg","thumb_url":"https:\/\/phimimg.com\/upload\/vod\/20260110-1\/19f2d88ca8a30cbead7ebfd4d05017fe.jpg","sub_docquyen":false,"time":"24 ph\u00fat\/t\u1eadp","episode_current":"T\u1eadp 6","quality":"FHD","lang":"Vietsub","year":2026,"category":[{"id":"9822be111d2ccc29c7172c78b8af8ff5","name":"H\u00e0nh \u0110\u1ed9ng","slug":"hanh-dong"},{"id":"66c78b23908113d478d8d85390a244b4","name":"Phi\u00eau L\u01b0u","slug":"phieu-luu"},{"id":"0bcf4077916678de9b48c89221fcf8ae","name":"Khoa H\u1ecdc","slug":"khoa-hoc"},{"id":"68564911f00849030f9c9c144ea1b931","name":"Vi\u1ec5n T\u01b0\u1edfng","slug":"vien-tuong"},{"id":"a7b065b92ad356387ef2e075dee66529","name":"T\u00e2m L\u00fd","slug":"tam-ly"}],"country":[{"id":"d4097fbffa8f7149a61281437171eb83","name":"Nh\u1eadt B\u1ea3n","slug":"nhat-ban"}]},{"tmdb":{"type":"tv","id":"154526","season":1,"vote_average":8.2,"vote_count":32},"imdb":{"id":null},"modified":{"time":"2026-02-13T11:19:17.000Z"},"_id":"43f1556b3de0b4278ac5ead369494cdb","name":"Gi\u1ea3i \u0110ua MF Ghost (Ph\u1ea7n 3)","slug":"giai-dua-mf-ghost-phan-3","origin_name":"MF Ghost (Season 3)","type":"hoathinh","poster_url":"https:\/\/phimimg.com\/upload\/vod\/20260102-1\/e80bd3591ab91dd585f5dcd567453b5c.jpg","thumb_url":"https:\/\/phimimg.com\/upload\/vod\/20260102-1\/1ddffae4c015ad5cb0b7fbc2e8b02d3a.jpg","sub_docquyen":false,"time":"24 ph\u00fat\/t\u1eadp","episode_current":"T\u1eadp 7","quality":"FHD","lang":"Vietsub","year":2026,"category":[{"id":"9822be111d2ccc29c7172c78b8af8ff5","name":"H\u00e0nh \u0110\u1ed9ng","slug":"hanh-dong"},{"id":"66c78b23908113d478d8d85390a244b4","name":"Phi\u00eau L\u01b0u","slug":"phieu-luu"},{"id":"a7b065b92ad356387ef2e075dee66529","name":"T\u00e2m L\u00fd","slug":"tam-ly"}],"country":[{"id":"d4097fbffa8f7149a61281437171eb83","name":"Nh\u1eadt B\u1ea3n","slug":"nhat-ban"}]},{"tmdb":{"type":"tv","id":"95479","season":1,"vote_average":8.6,"vote_count":4077},"imdb":{"id":null},"modified":{"time":"2026-02-13T11:18:49.000Z"},"_id":"2210bc8c8682f678d552ff7add41b418","name":"Ch\u00fa Thu\u1eadt H\u1ed3i Chi\u1ebfn (Ph\u1ea7n 3)","slug":"chu-thuat-hoi-chien-phan-3","origin_name":"Jujutsu Kaisen (Season 3)","type":"hoathinh","poster_url":"https:\/\/phimimg.com\/upload\/vod\/20260109-1\/c99ee9406799474fcd724211f93a1d4d.jpg","thumb_url":"https:\/\/phimimg.com\/upload\/vod\/20260109-1\/30bbc3c9118bdda3e751cec034b99886.jpg","sub_docquyen":false,"time":"24 ph\u00fat\/t\u1eadp","episode_current":"T\u1eadp 7","quality":"FHD","lang":"Vietsub","year":2026,"category":[{"id":"9822be111d2ccc29c7172c78b8af8ff5","name":"H\u00e0nh \u0110\u1ed9ng","slug":"hanh-dong"},{"id":"66c78b23908113d478d8d85390a244b4","name":"Phi\u00eau L\u01b0u","slug":"phieu-luu"},{"id":"0bcf4077916678de9b48c89221fcf8ae","name":"Khoa H\u1ecdc","slug":"khoa-hoc"},{"id":"68564911f00849030f9c9c144ea1b931","name":"Vi\u1ec5n T\u01b0\u1edfng","slug":"vien-tuong"},{"id":"a7b065b92ad356387ef2e075dee66529","name":"T\u00e2m L\u00fd","slug":"tam-ly"}],"country":[{"id":"d4097fbffa8f7149a61281437171eb83","name":"Nh\u1eadt B\u1ea3n","slug":"nhat-ban"}]},{"tmdb":{"type":"tv","id":"283891","season":1,"vote_average":0,"vote_count":0},"imdb":{"id":null},"modified":{"time":"2026-02-13T11:18:25.000Z"},"_id":"2ef13886ae1ff812f347d9af833fa57a","name":"Ch\u00e9n Th\u00e1nh C\u1ee7a Eris","slug":"chen-thanh-cua-eris","origin_name":"The Holy Grail Of Eris","type":"hoathinh","poster_url":"https:\/\/phimimg.com\/upload\/vod\/20260109-1\/63a9246498e3e810e00736fe720e1fe9.jpg","thumb_url":"https:\/\/phimimg.com\/upload\/vod\/20260109-1\/41713201f176b8fe3190b2618594d0b0.jpg","sub_docquyen":false,"time":"23 ph\u00fat\/t\u1eadp","episode_current":"T\u1eadp 6","quality":"FHD","lang":"Vietsub","year":2026,"category":[{"id":"2fb53017b3be83cd754a08adab3e916c","name":"B\u00ed \u1ea8n","slug":"bi-an"},{"id":"0bcf4077916678de9b48c89221fcf8ae","name":"Khoa H\u1ecdc","slug":"khoa-hoc"},{"id":"68564911f00849030f9c9c144ea1b931","name":"Vi\u1ec5n T\u01b0\u1edfng","slug":"vien-tuong"},{"id":"a7b065b92ad356387ef2e075dee66529","name":"T\u00e2m L\u00fd","slug":"tam-ly"}],"country":[{"id":"d4097fbffa8f7149a61281437171eb83","name":"Nh\u1eadt B\u1ea3n","slug":"nhat-ban"}]}],"pagination":{"totalItems":26331,"totalItemsPerPage":24,"currentPage":2,"totalPages":1098,"updateToday":2}}