{"status":true,"msg":"done","items":[{"tmdb":{"type":"tv","id":"301885","season":1,"vote_average":8,"vote_count":1},"imdb":{"id":null},"modified":{"time":"2026-02-15T01:31:29.000Z"},"_id":"bd74971af53184c9911331d4f7bdb4a0","name":"Gimbap V\u00e0 Onigiri","slug":"gimbap-va-onigiri","origin_name":"Gimbap And Onigiri","type":"series","poster_url":"https:\/\/phimimg.com\/upload\/vod\/20260122-1\/3c67fe3f1df0313a95c236ed0aa9dcdd.jpg","thumb_url":"https:\/\/phimimg.com\/upload\/vod\/20260122-1\/7097aff59a39752dacdc8f5beb23281e.jpg","sub_docquyen":false,"time":"38 ph\u00fat\/t\u1eadp","episode_current":"T\u1eadp 5","quality":"FHD","lang":"Vietsub","year":2026,"category":[{"id":"37a7b38b6184a5ebd3c43015aa20709d","name":"Ch\u00ednh K\u1ecbch","slug":"chinh-kich"},{"id":"bb2b4b030608ca5984c8dd0770f5b40b","name":"T\u00ecnh C\u1ea3m","slug":"tinh-cam"},{"id":"a7b065b92ad356387ef2e075dee66529","name":"T\u00e2m L\u00fd","slug":"tam-ly"}],"country":[{"id":"d4097fbffa8f7149a61281437171eb83","name":"Nh\u1eadt B\u1ea3n","slug":"nhat-ban"}]},{"tmdb":{"type":"tv","id":"273977","season":1,"vote_average":9.5,"vote_count":2},"imdb":{"id":null},"modified":{"time":"2026-02-14T23:24:38.000Z"},"_id":"00649cd10c9934e5bb72fe5beaf0f283","name":"Ngh\u1ec7 Thu\u1eadt L\u1eeba D\u1ed1i C\u1ee7a Sarah","slug":"nghe-thuat-lua-doi-cua-sarah","origin_name":"The Art of Sarah","type":"series","poster_url":"https:\/\/phimimg.com\/upload\/vod\/20260213-1\/6f8288b9cee4ae457be84bf97d951bea.jpg","thumb_url":"https:\/\/phimimg.com\/upload\/vod\/20260213-1\/08ce4f760d99001d8594e896c81dd055.jpg","sub_docquyen":false,"time":"50 ph\u00fat\/t\u1eadp","episode_current":"Ho\u00e0n T\u1ea5t (8\/8)","quality":"FHD","lang":"Vietsub","year":2026,"category":[{"id":"7a035ac0b37f5854f0f6979260899c90","name":"H\u00ecnh S\u1ef1","slug":"hinh-su"},{"id":"2fb53017b3be83cd754a08adab3e916c","name":"B\u00ed \u1ea8n","slug":"bi-an"},{"id":"37a7b38b6184a5ebd3c43015aa20709d","name":"Ch\u00ednh K\u1ecbch","slug":"chinh-kich"}],"country":[{"id":"05de95be5fc404da9680bbb3dd8262e6","name":"H\u00e0n Qu\u1ed1c","slug":"han-quoc"}]},{"tmdb":{"type":"tv","id":"258462","season":2,"vote_average":7.382,"vote_count":93},"imdb":{"id":null},"modified":{"time":"2026-02-14T13:20:31.000Z"},"_id":"b21da80e55c4e85ed1270e4fafb702c2","name":"D\u01b0\u1edbi l\u1edbp b\u00f9n (Ph\u1ea7n 2)","slug":"duoi-lop-bun-phan-2","origin_name":"In the Mud (Season 2)","type":"series","poster_url":"https:\/\/phimimg.com\/upload\/vod\/20260214-1\/c774f34e4bf4f90be83a729cd824cfbd.jpg","thumb_url":"https:\/\/phimimg.com\/upload\/vod\/20260214-1\/250def988fb3ba2f940c200e995a30ed.jpg","sub_docquyen":false,"time":"50 ph\u00fat\/t\u1eadp","episode_current":"Ho\u00e0n T\u1ea5t (8\/8)","quality":"FHD","lang":"Vietsub","year":2026,"category":[{"id":"7a035ac0b37f5854f0f6979260899c90","name":"H\u00ecnh S\u1ef1","slug":"hinh-su"},{"id":"37a7b38b6184a5ebd3c43015aa20709d","name":"Ch\u00ednh K\u1ecbch","slug":"chinh-kich"}],"country":[{"id":"3536be57ce0713954e454ae6c53ec023","name":"Argentina","slug":"argentina"}]},{"tmdb":{"type":"movie","id":"1466131","season":null,"vote_average":7,"vote_count":1},"imdb":{"id":null},"modified":{"time":"2026-02-14T13:20:21.000Z"},"_id":"72d1e05bdd68d12303960b223fb15e66","name":"\u00dat Lan: O\u00e1n Linh Gi\u1eef C\u1ee7a","slug":"ut-lan-oan-linh-giu-cua","origin_name":"The Guardian Demon \/ Ut Lan: The Vengeful Guardian Spirit","type":"single","poster_url":"https:\/\/phimimg.com\/upload\/vod\/20260214-1\/e0b89765d8e3af6e3c17376cd7b74a2c.jpg","thumb_url":"https:\/\/phimimg.com\/upload\/vod\/20260214-1\/63f81ecf86740e24cd088e739daadcd2.jpg","sub_docquyen":false,"time":"111 ph\u00fat","episode_current":"Full","quality":"FHD","lang":"Vietsub","year":2025,"category":[{"id":"4db8d7d4b9873981e3eeb76d02997d58","name":"Kinh D\u1ecb","slug":"kinh-di"}],"country":[{"id":"f6ce1ae8b39af9d38d653b8a0890adb8","name":"Vi\u1ec7t Nam","slug":"viet-nam"}]},{"tmdb":{"type":"movie","id":"34376","season":null,"vote_average":5.781,"vote_count":167},"imdb":{"id":null},"modified":{"time":"2026-02-14T13:20:11.000Z"},"_id":"cf62365fe3fb1f6e44ca45af14daa212","name":"Mannequin Two: On the Move","slug":"mannequin-two-on-the-move","origin_name":"Mannequin Two: On the Move","type":"single","poster_url":"https:\/\/phimimg.com\/upload\/vod\/20260214-1\/8b6ae7e9cfcbe84341c229e76aabf4fd.jpg","thumb_url":"https:\/\/phimimg.com\/upload\/vod\/20260214-1\/eaad8320089cfd364f72b5e88dd3078c.jpg","sub_docquyen":false,"time":"95 ph\u00fat","episode_current":"Full","quality":"FHD","lang":"Vietsub","year":1991,"category":[{"id":"68564911f00849030f9c9c144ea1b931","name":"Vi\u1ec5n T\u01b0\u1edfng","slug":"vien-tuong"},{"id":"ba6fd52e5a3aca80eaaf1a3b50a182db","name":"H\u00e0i H\u01b0\u1edbc","slug":"hai-huoc"},{"id":"0bcf4077916678de9b48c89221fcf8ae","name":"Khoa H\u1ecdc","slug":"khoa-hoc"},{"id":"68564911f00849030f9c9c144ea1b931","name":"Vi\u1ec5n T\u01b0\u1edfng","slug":"vien-tuong"},{"id":"bb2b4b030608ca5984c8dd0770f5b40b","name":"T\u00ecnh C\u1ea3m","slug":"tinh-cam"}],"country":[{"id":"74d9fa92f4dea9ecea8fc2233dc7921a","name":"\u00c2u M\u1ef9","slug":"au-my"}]},{"tmdb":{"type":"movie","id":"258947","season":null,"vote_average":4.8,"vote_count":51},"imdb":{"id":null},"modified":{"time":"2026-02-14T12:32:26.000Z"},"_id":"f47d0ad31c4c49061b9e505593e3db98","name":"\u0110\u1ea1o \u0110\u1ee9c Ch\u1ebft Ng\u01b0\u1eddi","slug":"dao-duc-chet-nguoi","origin_name":"Deadly Virtues: Love. Honour. Obey.","type":"single","poster_url":"https:\/\/phimimg.com\/upload\/vod\/20260213-1\/df660c984ce69410946b462ecbbb6734.jpg","thumb_url":"https:\/\/phimimg.com\/upload\/vod\/20260213-1\/16ac6c55e62d153c0d68942ef57b5490.jpg","sub_docquyen":false,"time":"87 ph\u00fat","episode_current":"Full","quality":"FHD","lang":"Vietsub","year":2014,"category":[{"id":"a7b065b92ad356387ef2e075dee66529","name":"T\u00e2m L\u00fd","slug":"tam-ly"},{"id":"37a7b38b6184a5ebd3c43015aa20709d","name":"Ch\u00ednh K\u1ecbch","slug":"chinh-kich"},{"id":"4b4457a1af8554c282dc8ac41fd7b4a1","name":"Phim 18+","slug":"phim-18"}],"country":[{"id":"41487913363f08e29ea07f6fdfb49a41","name":"H\u00e0 Lan","slug":"ha-lan"},{"id":"932bbaca386ee0436ad0159117eabae4","name":"Anh","slug":"anh"}]},{"tmdb":{"type":"tv","id":"310239","season":1,"vote_average":0,"vote_count":0},"imdb":{"id":null},"modified":{"time":"2026-02-14T12:15:59.000Z"},"_id":"a120cbe81a9c5d6c1f699e15a2691de8","name":"B\u1ea3o T\u00e0ng Ng\u00e2y Th\u01a1","slug":"bao-tang-ngay-tho","origin_name":"Museum of Innocence","type":"series","poster_url":"https:\/\/phimimg.com\/upload\/vod\/20260213-1\/91998deb553a33a2b2b0e351ac5e0ec3.jpg","thumb_url":"https:\/\/phimimg.com\/upload\/vod\/20260213-1\/00bbb55a2803eea054574b2d1ee46110.jpg","sub_docquyen":false,"time":"50 ph\u00fat\/t\u1eadp","episode_current":"Ho\u00e0n T\u1ea5t (9\/9)","quality":"FHD","lang":"Vietsub","year":2026,"category":[{"id":"37a7b38b6184a5ebd3c43015aa20709d","name":"Ch\u00ednh K\u1ecbch","slug":"chinh-kich"},{"id":"bb2b4b030608ca5984c8dd0770f5b40b","name":"T\u00ecnh C\u1ea3m","slug":"tinh-cam"},{"id":"a7b065b92ad356387ef2e075dee66529","name":"T\u00e2m L\u00fd","slug":"tam-ly"}],"country":[{"id":"dc655a18ab16bec3fe66b101d71fcb04","name":"Th\u00f4\u0309 Nhi\u0303 Ky\u0300","slug":"tho-nhi-ky"}]},{"tmdb":{"type":"movie","id":"275","season":null,"vote_average":7.847,"vote_count":8866},"imdb":{"id":null},"modified":{"time":"2026-02-14T12:15:32.000Z"},"_id":"c1b70d965ca504aa751ddb62ad69c63f","name":"\u0110i Qu\u00e1 Xa","slug":"di-qua-xa","origin_name":"Fargo","type":"single","poster_url":"https:\/\/phimimg.com\/upload\/vod\/20260214-1\/02a9282b86003ce0cb0e7263ea1486a0.jpg","thumb_url":"https:\/\/phimimg.com\/upload\/vod\/20260214-1\/574f97193f0ff8146d76720baf705245.jpg","sub_docquyen":false,"time":"98 ph\u00fat","episode_current":"Full","quality":"FHD","lang":"Vietsub","year":1996,"category":[{"id":"7a035ac0b37f5854f0f6979260899c90","name":"H\u00ecnh S\u1ef1","slug":"hinh-su"},{"id":"37a7b38b6184a5ebd3c43015aa20709d","name":"Ch\u00ednh K\u1ecbch","slug":"chinh-kich"},{"id":"a7b065b92ad356387ef2e075dee66529","name":"T\u00e2m L\u00fd","slug":"tam-ly"}],"country":[{"id":"74d9fa92f4dea9ecea8fc2233dc7921a","name":"\u00c2u M\u1ef9","slug":"au-my"}]},{"tmdb":{"type":"movie","id":"76341","season":null,"vote_average":7.629,"vote_count":23743},"imdb":{"id":null},"modified":{"time":"2026-02-14T12:15:19.000Z"},"_id":"ce6c92303f38d297e263c7180f03d402","name":"Max \u0110i\u00ean: Con \u0110\u01b0\u1eddng T\u1eed Th\u1ea7n","slug":"max-dien-con-duong-tu-than","origin_name":"Mad Max: Fury Road","type":"single","poster_url":"https:\/\/phimimg.com\/upload\/vod\/20260214-1\/7a8cc2da852a2e790bc5c3a6b8718a3f.jpg","thumb_url":"https:\/\/phimimg.com\/upload\/vod\/20260214-1\/c7eae7c8c5b22b66cf60f34924a3f3d3.jpg","sub_docquyen":false,"time":"120 ph\u00fat","episode_current":"Full","quality":"FHD","lang":"Vietsub","year":2015,"category":[{"id":"9822be111d2ccc29c7172c78b8af8ff5","name":"H\u00e0nh \u0110\u1ed9ng","slug":"hanh-dong"},{"id":"66c78b23908113d478d8d85390a244b4","name":"Phi\u00eau L\u01b0u","slug":"phieu-luu"},{"id":"0bcf4077916678de9b48c89221fcf8ae","name":"Khoa H\u1ecdc","slug":"khoa-hoc"},{"id":"68564911f00849030f9c9c144ea1b931","name":"Vi\u1ec5n T\u01b0\u1edfng","slug":"vien-tuong"}],"country":[{"id":"435a85571578e419ed511257881a1e75","name":"\u00dac","slug":"uc"},{"id":"74d9fa92f4dea9ecea8fc2233dc7921a","name":"\u00c2u M\u1ef9","slug":"au-my"}]},{"tmdb":{"type":"movie","id":"1442908","season":null,"vote_average":8,"vote_count":2},"imdb":{"id":null},"modified":{"time":"2026-02-14T12:15:06.000Z"},"_id":"0d65b82f59ffb7da013b93e7021f67f8","name":"Khu\u0301c ng\u00e2\u0303u h\u01b0\u0301ng \u01a1\u0309 qua\u0301n bar","slug":"khuc-ngau-hung-o-quan-bar","origin_name":"The Singers","type":"single","poster_url":"https:\/\/phimimg.com\/upload\/vod\/20260213-1\/ad49451896959cbcf29f01e28ce72549.jpg","thumb_url":"https:\/\/phimimg.com\/upload\/vod\/20260213-1\/6e7908550a3cfe448937a4dfa2ddd3bc.jpg","sub_docquyen":false,"time":"17 ph\u00fat","episode_current":"Full","quality":"FHD","lang":"Vietsub","year":2026,"category":[{"id":"252e74b4c832ddb4233d7499f5ed122e","name":"\u00c2m Nh\u1ea1c","slug":"am-nhac"},{"id":"37a7b38b6184a5ebd3c43015aa20709d","name":"Ch\u00ednh K\u1ecbch","slug":"chinh-kich"},{"id":"ba6fd52e5a3aca80eaaf1a3b50a182db","name":"H\u00e0i H\u01b0\u1edbc","slug":"hai-huoc"}],"country":[{"id":"74d9fa92f4dea9ecea8fc2233dc7921a","name":"\u00c2u M\u1ef9","slug":"au-my"}]},{"tmdb":{"type":"movie","id":"1243460","season":null,"vote_average":0,"vote_count":0},"imdb":{"id":null},"modified":{"time":"2026-02-14T12:14:32.000Z"},"_id":"285440c1920db8887db5645e46429ac4","name":"Chuy\u1ebfn Du Ngo\u1ea1n C\u1ee7a Joe V\u00e0 B.J.","slug":"chuyen-du-ngoan-cua-joe-va-bj","origin_name":"Joe's College Road Trip","type":"single","poster_url":"https:\/\/phimimg.com\/upload\/vod\/20260213-1\/46b498091b00bac7bfb8bc3ee6721e5e.jpg","thumb_url":"https:\/\/phimimg.com\/upload\/vod\/20260213-1\/53239c7d82067e08bd95e47c5030f333.jpg","sub_docquyen":false,"time":"109 ph\u00fat","episode_current":"Full","quality":"FHD","lang":"Vietsub","year":2026,"category":[{"id":"ba6fd52e5a3aca80eaaf1a3b50a182db","name":"H\u00e0i H\u01b0\u1edbc","slug":"hai-huoc"}],"country":[{"id":"74d9fa92f4dea9ecea8fc2233dc7921a","name":"\u00c2u M\u1ef9","slug":"au-my"}]},{"tmdb":{"type":"tv","id":"282158","season":1,"vote_average":8,"vote_count":1},"imdb":{"id":null},"modified":{"time":"2026-02-14T08:16:11.000Z"},"_id":"3aa5bcc51a5e92cb51f514cc51391d4e","name":"Tr\u1ea1ch Thi\u00ean K\u00fd","slug":"trach-thien-ky","origin_name":"Fighter Of The Destiny 3D","type":"hoathinh","poster_url":"https:\/\/phimimg.com\/upload\/vod\/20260204-1\/551fbd9cb8955022c0b50a60727decaa.jpg","thumb_url":"https:\/\/phimimg.com\/upload\/vod\/20260204-1\/1aca6f23b3cda6ce17fbfe32ada51669.jpg","sub_docquyen":false,"time":"22 ph\u00fat\/t\u1eadp","episode_current":"T\u1eadp 4","quality":"FHD","lang":"Vietsub","year":2026,"category":[{"id":"9822be111d2ccc29c7172c78b8af8ff5","name":"H\u00e0nh \u0110\u1ed9ng","slug":"hanh-dong"},{"id":"66c78b23908113d478d8d85390a244b4","name":"Phi\u00eau L\u01b0u","slug":"phieu-luu"},{"id":"0bcf4077916678de9b48c89221fcf8ae","name":"Khoa H\u1ecdc","slug":"khoa-hoc"},{"id":"68564911f00849030f9c9c144ea1b931","name":"Vi\u1ec5n T\u01b0\u1edfng","slug":"vien-tuong"},{"id":"37a7b38b6184a5ebd3c43015aa20709d","name":"Ch\u00ednh K\u1ecbch","slug":"chinh-kich"}],"country":[{"id":"3e075636c731fe0f889c69e0bf82c083","name":"Trung Qu\u1ed1c","slug":"trung-quoc"}]},{"tmdb":{"type":"tv","id":"229443","season":2,"vote_average":6.9,"vote_count":25},"imdb":{"id":null},"modified":{"time":"2026-02-14T08:15:14.000Z"},"_id":"55f16320eb523947f12d2e94d9630c6e","name":"C\u00f4ng Ch\u00faa, \u0110\u00e3 \u0110\u1ebfn Gi\u1edd Th\u1ea9m V\u1ea5n R\u1ed3i! (Ph\u1ea7n 2)","slug":"cong-chua-da-den-gio-tham-van-roi-phan-2","origin_name":"Tis Time For 'Torture,' Princess (Season 2)","type":"hoathinh","poster_url":"https:\/\/phimimg.com\/upload\/vod\/20260214-1\/9ee9c1f4e5dcee998f3926ed16ee82fa.jpg","thumb_url":"https:\/\/phimimg.com\/upload\/vod\/20260214-1\/f57c4d9973fba93a27583d9f9ba31ab7.jpg","sub_docquyen":false,"time":"24 ph\u00fat\/t\u1eadp","episode_current":"T\u1eadp 5","quality":"FHD","lang":"Vietsub","year":2026,"category":[{"id":"ba6fd52e5a3aca80eaaf1a3b50a182db","name":"H\u00e0i H\u01b0\u1edbc","slug":"hai-huoc"},{"id":"0bcf4077916678de9b48c89221fcf8ae","name":"Khoa H\u1ecdc","slug":"khoa-hoc"},{"id":"68564911f00849030f9c9c144ea1b931","name":"Vi\u1ec5n T\u01b0\u1edfng","slug":"vien-tuong"},{"id":"a7b065b92ad356387ef2e075dee66529","name":"T\u00e2m L\u00fd","slug":"tam-ly"}],"country":[{"id":"d4097fbffa8f7149a61281437171eb83","name":"Nh\u1eadt B\u1ea3n","slug":"nhat-ban"}]},{"tmdb":{"type":"tv","id":"229443","season":2,"vote_average":6.9,"vote_count":25},"imdb":{"id":null},"modified":{"time":"2026-02-14T08:11:14.000Z"},"_id":"c10059c0ac08e46e083e38750387f953","name":"C\u00f4ng Ch\u00faa, \u0110\u00e3 \u0110\u1ebfn Gi\u1edd Th\u1ea9m V\u1ea5n R\u1ed3i! (Ph\u1ea7n 1)","slug":"cong-chua-da-den-gio-tham-van-roi-phan-1","origin_name":"Tis Time For 'Torture,' Princess (Season 1)","type":"hoathinh","poster_url":"https:\/\/phimimg.com\/upload\/vod\/20260214-1\/91bf751f1d4cbdca153dfd678d872e74.jpg","thumb_url":"https:\/\/phimimg.com\/upload\/vod\/20260214-1\/4eb3b7daec1cf5dfa193b0f5f2e4fcce.jpg","sub_docquyen":false,"time":"24 ph\u00fat\/t\u1eadp","episode_current":"Ho\u00e0n T\u1ea5t (12\/12)","quality":"FHD","lang":"Vietsub","year":2024,"category":[{"id":"ba6fd52e5a3aca80eaaf1a3b50a182db","name":"H\u00e0i H\u01b0\u1edbc","slug":"hai-huoc"},{"id":"0bcf4077916678de9b48c89221fcf8ae","name":"Khoa H\u1ecdc","slug":"khoa-hoc"},{"id":"68564911f00849030f9c9c144ea1b931","name":"Vi\u1ec5n T\u01b0\u1edfng","slug":"vien-tuong"},{"id":"a7b065b92ad356387ef2e075dee66529","name":"T\u00e2m L\u00fd","slug":"tam-ly"}],"country":[{"id":"d4097fbffa8f7149a61281437171eb83","name":"Nh\u1eadt B\u1ea3n","slug":"nhat-ban"}]},{"tmdb":{"type":"tv","id":"157121","season":4,"vote_average":0,"vote_count":0},"imdb":{"id":null},"modified":{"time":"2026-02-14T08:07:54.000Z"},"_id":"24f1f625bd45de40d754ee728086e4dc","name":"H\u00f9ng Long Phong B\u00e1 (Ph\u1ea7n 4)","slug":"hung-long-phong-ba-phan-4","origin_name":"Brothers For Life (Season 4)","type":"series","poster_url":"https:\/\/phimimg.com\/upload\/vod\/20260214-1\/8bd4eba1068788972aceeae2fa924c28.jpg","thumb_url":"https:\/\/phimimg.com\/upload\/vod\/20260214-1\/71cec309dd4be81a09e06e470536ae1d.jpg","sub_docquyen":false,"time":"25 ph\u00fat\/t\u1eadp","episode_current":"T\u1eadp 2","quality":"FHD","lang":"Vietsub","year":2026,"category":[{"id":"37a7b38b6184a5ebd3c43015aa20709d","name":"Ch\u00ednh K\u1ecbch","slug":"chinh-kich"},{"id":"a7b065b92ad356387ef2e075dee66529","name":"T\u00e2m L\u00fd","slug":"tam-ly"},{"id":"9822be111d2ccc29c7172c78b8af8ff5","name":"H\u00e0nh \u0110\u1ed9ng","slug":"hanh-dong"},{"id":"7a035ac0b37f5854f0f6979260899c90","name":"H\u00ecnh S\u1ef1","slug":"hinh-su"}],"country":[{"id":"f6ce1ae8b39af9d38d653b8a0890adb8","name":"Vi\u1ec7t Nam","slug":"viet-nam"}]},{"tmdb":{"type":null,"id":null,"season":null,"vote_average":0,"vote_count":0},"imdb":{"id":null},"modified":{"time":"2026-02-14T08:02:11.000Z"},"_id":"9bcdf808bb0a2d6d454e46770885da04","name":"H\u00f9ng Long Phong B\u00e1 (Ph\u1ea7n 3)","slug":"hung-long-phong-ba-phan-3","origin_name":"Brothers For Life (Season 3)","type":"series","poster_url":"https:\/\/phimimg.com\/upload\/vod\/20240628-1\/b2340132485416417145a5cc206de3f4.jpg","thumb_url":"https:\/\/phimimg.com\/upload\/vod\/20240628-1\/f803316aa041a1c8bf523933783ae9ca.jpg","sub_docquyen":false,"time":"25 ph\u00fat\/t\u1eadp","episode_current":"Ho\u00e0n T\u1ea5t (6\/6)","quality":"FHD","lang":"Vietsub","year":2024,"category":[{"id":"9822be111d2ccc29c7172c78b8af8ff5","name":"H\u00e0nh \u0110\u1ed9ng","slug":"hanh-dong"},{"id":"7a035ac0b37f5854f0f6979260899c90","name":"H\u00ecnh S\u1ef1","slug":"hinh-su"}],"country":[{"id":"f6ce1ae8b39af9d38d653b8a0890adb8","name":"Vi\u1ec7t Nam","slug":"viet-nam"}]},{"tmdb":{"type":null,"id":null,"season":null,"vote_average":0,"vote_count":0},"imdb":{"id":null},"modified":{"time":"2026-02-14T08:02:07.000Z"},"_id":"00126b47d5502dfb7d01f750ad23d813","name":"H\u00f9ng Long Phong B\u00e1 (Ph\u1ea7n 2)","slug":"hung-long-phong-ba-phan-2","origin_name":"Brothers For Life (Season 2)","type":"series","poster_url":"https:\/\/phimimg.com\/upload\/vod\/20240304-1\/502aa1fb2315eaaaa9717919d48691b7.jpg","thumb_url":"https:\/\/phimimg.com\/upload\/vod\/20240304-1\/c68dc025f5f43230b8d1bad107036e4c.jpg","sub_docquyen":false,"time":"30 ph\u00fat\/t\u1eadp","episode_current":"Ho\u00e0n T\u1ea5t (5\/5)","quality":"FHD","lang":"Vietsub","year":2023,"category":[{"id":"9822be111d2ccc29c7172c78b8af8ff5","name":"H\u00e0nh \u0110\u1ed9ng","slug":"hanh-dong"},{"id":"7a035ac0b37f5854f0f6979260899c90","name":"H\u00ecnh S\u1ef1","slug":"hinh-su"},{"id":"66c78b23908113d478d8d85390a244b4","name":"Phi\u00eau L\u01b0u","slug":"phieu-luu"}],"country":[{"id":"f6ce1ae8b39af9d38d653b8a0890adb8","name":"Vi\u1ec7t Nam","slug":"viet-nam"}]},{"tmdb":{"type":null,"id":null,"season":null,"vote_average":0,"vote_count":0},"imdb":{"id":null},"modified":{"time":"2026-02-14T08:01:58.000Z"},"_id":"d644c7cbbb1064491c3b1334c99b25c8","name":"H\u00f9ng Long Phong B\u00e1 (Ph\u1ea7n 1)","slug":"hung-long-phong-ba-phan-1","origin_name":"Brothers For Life (Season 1)","type":"series","poster_url":"https:\/\/phimimg.com\/upload\/vod\/20240326-1\/d9047c849f5fb53fe278a581636a9afb.jpg","thumb_url":"https:\/\/phimimg.com\/upload\/vod\/20240326-1\/b79cdc640456a8ba8068ffa73d5ded89.jpg","sub_docquyen":false,"time":"30 ph\u00fat\/t\u1eadp","episode_current":"Ho\u00e0n T\u1ea5t (5\/5)","quality":"FHD","lang":"Vietsub","year":2022,"category":[{"id":"9822be111d2ccc29c7172c78b8af8ff5","name":"H\u00e0nh \u0110\u1ed9ng","slug":"hanh-dong"},{"id":"7a035ac0b37f5854f0f6979260899c90","name":"H\u00ecnh S\u1ef1","slug":"hinh-su"},{"id":"66c78b23908113d478d8d85390a244b4","name":"Phi\u00eau L\u01b0u","slug":"phieu-luu"}],"country":[{"id":"f6ce1ae8b39af9d38d653b8a0890adb8","name":"Vi\u1ec7t Nam","slug":"viet-nam"}]},{"tmdb":{"type":null,"id":null,"season":null,"vote_average":0,"vote_count":0},"imdb":{"id":null},"modified":{"time":"2026-02-14T07:59:36.000Z"},"_id":"1b975b9f0481510eafbbfb055280e433","name":"\u1ea8m Th\u1ef1c Th\u00e1i Lan","slug":"am-thuc-thai-lan","origin_name":"Tasteful Thailand","type":"series","poster_url":"https:\/\/phimimg.com\/upload\/vod\/20251221-1\/1d07c9d992e91f8dc782888dc6aedea4.jpg","thumb_url":"https:\/\/phimimg.com\/upload\/vod\/20251221-1\/3bbef99460310b96ecdb5b118ce776b9.jpg","sub_docquyen":false,"time":"13 ph\u00fat\/t\u1eadp","episode_current":"T\u1eadp 4","quality":"FHD","lang":"Vietsub","year":2025,"category":[{"id":"37a7b38b6184a5ebd3c43015aa20709d","name":"Ch\u00ednh K\u1ecbch","slug":"chinh-kich"},{"id":"1645fa23fa33651cef84428b0dcc2130","name":"T\u00e0i Li\u1ec7u","slug":"tai-lieu"}],"country":[{"id":"2975bbecb6017f4b4f06951f76d858de","name":"Tha\u0301i Lan","slug":"thai-lan"}]},{"tmdb":{"type":"tv","id":"103913","season":3,"vote_average":7.5,"vote_count":295},"imdb":{"id":null},"modified":{"time":"2026-02-14T07:59:13.000Z"},"_id":"94397fe878869449f866b64722a0b7c9","name":"Tehran (Ph\u1ea7n 3)","slug":"tehran-phan-3","origin_name":"Tehran (Season 3)","type":"series","poster_url":"https:\/\/phimimg.com\/upload\/vod\/20260111-1\/18fecea8fc9e4eebb1b0151a1171c9fe.jpg","thumb_url":"https:\/\/phimimg.com\/upload\/vod\/20260111-1\/7e2b010a8793e69aa2e2f81073804a6a.jpg","sub_docquyen":false,"time":"50 ph\u00fat\/t\u1eadp","episode_current":"T\u1eadp 6","quality":"FHD","lang":"Vietsub","year":2026,"category":[{"id":"37a7b38b6184a5ebd3c43015aa20709d","name":"Ch\u00ednh K\u1ecbch","slug":"chinh-kich"},{"id":"a7b065b92ad356387ef2e075dee66529","name":"T\u00e2m L\u00fd","slug":"tam-ly"},{"id":"7a035ac0b37f5854f0f6979260899c90","name":"H\u00ecnh S\u1ef1","slug":"hinh-su"},{"id":"9822be111d2ccc29c7172c78b8af8ff5","name":"H\u00e0nh \u0110\u1ed9ng","slug":"hanh-dong"}],"country":[{"id":"6b718641741f992e68ec3712718561b8","name":"Greece","slug":"greece"},{"id":"5a548c2f5875f10bf5614b7c258876cf","name":"Israel","slug":"israel"},{"id":"74d9fa92f4dea9ecea8fc2233dc7921a","name":"\u00c2u M\u1ef9","slug":"au-my"}]},{"tmdb":{"type":"tv","id":"278127","season":1,"vote_average":0,"vote_count":0},"imdb":{"id":null},"modified":{"time":"2026-02-14T07:58:51.000Z"},"_id":"6aaf618580961e7d7d50f1a6aa246fa1","name":"\u0110\u01b0\u1eddng Cung K\u1ef3 \u00c1n: Thanh V\u1ee5 Phong Minh","slug":"duong-cung-ky-an-thanh-vu-phong-minh","origin_name":"Unveil: Jadewind","type":"series","poster_url":"https:\/\/phimimg.com\/upload\/vod\/20260205-1\/365d6e501c0e0d6263f51b0225429670.jpg","thumb_url":"https:\/\/phimimg.com\/upload\/vod\/20260205-1\/a3cf3375b958f71bfeed0ac302b76bc9.jpg","sub_docquyen":false,"time":"62 ph\u00fat\/t\u1eadp","episode_current":"T\u1eadp 20","quality":"FHD","lang":"Vietsub + Thuy\u1ebft Minh","year":2026,"category":[{"id":"37a7b38b6184a5ebd3c43015aa20709d","name":"Ch\u00ednh K\u1ecbch","slug":"chinh-kich"},{"id":"2fb53017b3be83cd754a08adab3e916c","name":"B\u00ed \u1ea8n","slug":"bi-an"},{"id":"a7b065b92ad356387ef2e075dee66529","name":"T\u00e2m L\u00fd","slug":"tam-ly"}],"country":[{"id":"3e075636c731fe0f889c69e0bf82c083","name":"Trung Qu\u1ed1c","slug":"trung-quoc"}]},{"tmdb":{"type":"tv","id":"206343","season":3,"vote_average":6,"vote_count":10},"imdb":{"id":null},"modified":{"time":"2026-02-14T07:58:02.000Z"},"_id":"5497d34aeeed8c74dc8146b00c1ed489","name":"Th\u1ea7n M\u1ed9","slug":"than-mo-2022","origin_name":"Tomb Of Fallen Gods","type":"hoathinh","poster_url":"https:\/\/phimimg.com\/upload\/vod\/20251124-1\/b20ca22d56f6ea0c41cdafea81018a64.jpg","thumb_url":"https:\/\/phimimg.com\/upload\/vod\/20251124-1\/74ab8505711d0ca1a57d85c0a13fb19f.jpg","sub_docquyen":false,"time":"20 ph\u00fat\/t\u1eadp","episode_current":"T\u1eadp 72","quality":"FHD","lang":"Vietsub","year":2022,"category":[{"id":"0bcf4077916678de9b48c89221fcf8ae","name":"Khoa H\u1ecdc","slug":"khoa-hoc"},{"id":"68564911f00849030f9c9c144ea1b931","name":"Vi\u1ec5n T\u01b0\u1edfng","slug":"vien-tuong"},{"id":"37a7b38b6184a5ebd3c43015aa20709d","name":"Ch\u00ednh K\u1ecbch","slug":"chinh-kich"},{"id":"a7b065b92ad356387ef2e075dee66529","name":"T\u00e2m L\u00fd","slug":"tam-ly"},{"id":"66c78b23908113d478d8d85390a244b4","name":"Phi\u00eau L\u01b0u","slug":"phieu-luu"}],"country":[{"id":"3e075636c731fe0f889c69e0bf82c083","name":"Trung Qu\u1ed1c","slug":"trung-quoc"}]},{"tmdb":{"type":"tv","id":"283119","season":1,"vote_average":10,"vote_count":1},"imdb":{"id":null},"modified":{"time":"2026-02-14T07:56:55.000Z"},"_id":"5ee94a1dab24140d186fe48def60b528","name":"Th\u00e2m Kh\u00f4ng B\u1ec9 Ng\u1ea1n","slug":"tham-khong-bi-ngan","origin_name":"The Other Side Of Deep Space","type":"hoathinh","poster_url":"https:\/\/phimimg.com\/upload\/vod\/20260117-1\/0c3f5d7611c746ebb64b5b778feb4d0a.jpg","thumb_url":"https:\/\/phimimg.com\/upload\/vod\/20260117-1\/244d10537faac8dd7541481eea14976e.jpg","sub_docquyen":false,"time":"22 ph\u00fat\/t\u1eadp","episode_current":"T\u1eadp 7","quality":"FHD","lang":"Vietsub","year":2026,"category":[{"id":"9822be111d2ccc29c7172c78b8af8ff5","name":"H\u00e0nh \u0110\u1ed9ng","slug":"hanh-dong"},{"id":"66c78b23908113d478d8d85390a244b4","name":"Phi\u00eau L\u01b0u","slug":"phieu-luu"},{"id":"0bcf4077916678de9b48c89221fcf8ae","name":"Khoa H\u1ecdc","slug":"khoa-hoc"},{"id":"68564911f00849030f9c9c144ea1b931","name":"Vi\u1ec5n T\u01b0\u1edfng","slug":"vien-tuong"},{"id":"a7b065b92ad356387ef2e075dee66529","name":"T\u00e2m L\u00fd","slug":"tam-ly"}],"country":[{"id":"3e075636c731fe0f889c69e0bf82c083","name":"Trung Qu\u1ed1c","slug":"trung-quoc"}]},{"tmdb":{"type":"tv","id":"30983","season":1,"vote_average":7.997,"vote_count":693},"imdb":{"id":null},"modified":{"time":"2026-02-14T07:56:31.000Z"},"_id":"68ff9c82826dcda9030b6b0990efc033","name":"Th\u00e1m T\u1eed L\u1eebng Danh Conan","slug":"tham-tu-lung-danh-conan","origin_name":"Detective Conan","type":"hoathinh","poster_url":"https:\/\/phimimg.com\/upload\/vod\/20240310-1\/025424cf62248b9a7b54279ef5416e26.jpg","thumb_url":"https:\/\/phimimg.com\/upload\/vod\/20240310-1\/2a39971cc29c2802259b918eb437a45b.jpg","sub_docquyen":false,"time":"25 ph\u00fat\/t\u1eadp","episode_current":"T\u1eadp 1191","quality":"FHD","lang":"Vietsub + L\u1ed3ng Ti\u1ebfng","year":1996,"category":[{"id":"2fb53017b3be83cd754a08adab3e916c","name":"B\u00ed \u1ea8n","slug":"bi-an"},{"id":"ba6fd52e5a3aca80eaaf1a3b50a182db","name":"H\u00e0i H\u01b0\u1edbc","slug":"hai-huoc"}],"country":[{"id":"d4097fbffa8f7149a61281437171eb83","name":"Nh\u1eadt B\u1ea3n","slug":"nhat-ban"}]}],"pagination":{"totalItems":26331,"totalItemsPerPage":24,"currentPage":1,"totalPages":1098,"updateToday":2}}